大谷翔平の投球データでRの基本を勉強しよう
…
そうして作ったデータを、「ohtani_p_simple」と名付けたものに入力する。

なお、プログラムのところでは、#記号以下に書いたことはコンピューターが無視してくれる（ので、以下のように、人間用のメモとして使える）。

ohtani_p_simple <- ohtani_p %>% # 元データohtani_pを加工したものをohtani_p_simpleに入力する
  select(game_date, # 試合の日付と
         pitch_name, # 球種と
         release_speed, # 球速と
         pfx_x, # 横方向の変化量と
         pfx_z) # 縦方向の変化量を選ぶ

ohtani_p_simple # ohtani_p_simpleの最初のところを表示する

## # A tibble: 4,656 × 5
##    game_date  pitch_name      release_speed pfx_x pfx_z
##    <date>     <chr>                   <dbl> <dbl> <dbl>
##  1 2021-09-26 4-Seam Fastball          99.2 -0.13  1.03
##  2 2021-09-26 Split-Finger             91.8 -1.08  0.33
##  3 2021-09-26 Sweeper                  85.5  0.96  0.5 
##  4 2021-09-26 4-Seam Fastball          97.4 -0.4   1.01
##  5 2021-09-26 Split-Finger             90.8 -0.94  0.21
##  6 2021-09-26 Sweeper                  85.2  1.24  0.19
##  7 2021-09-26 Sweeper                  84.4  1.41  0.1 
##  8 2021-09-26 Sweeper                  85.3  0.89  0.8 
##  9 2021-09-26 Sweeper                  84.3  1.37  0.38
## 10 2021-09-26 Sweeper                  83    1.37  0.39
## # … with 4,646 more rows

新しい列を作る

球速がマイルで、変化量がフィートで表示されているので、メートル法の住人には分かりにくい。

mutateという関数でメートル法表示のデータを作る。球速に1.60934をかけ算するとキロ表示になり、変化量に30.48をかけるとセンチ表示になる。こうして作ったデータで、さっき作ったohtani_p_simpleを「上書き」する。

ohtani_p_simple <- ohtani_p_simple %>% # ohtani_p_simpleを加工し、それで元のohtani_p_simpleを上書きする
  mutate(release_speed_km = release_speed * 1.60934,  # マイル表示の球速をキロ表示に変換した列を作る
         pfx_x_cm=pfx_x * 30.48, # フィート表示の変化量をセンチ表示に変換した列を作る
         pfx_z_cm=pfx_z * 30.48) 

ohtani_p_simple

## # A tibble: 4,656 × 8
##    game_date  pitch_name      release_speed pfx_x pfx_z releas…¹ pfx_x…² pfx_z…³
##    <date>     <chr>                   <dbl> <dbl> <dbl>    <dbl>   <dbl>   <dbl>
##  1 2021-09-26 4-Seam Fastball          99.2 -0.13  1.03     160.   -3.96   31.4 
##  2 2021-09-26 Split-Finger             91.8 -1.08  0.33     148.  -32.9    10.1 
##  3 2021-09-26 Sweeper                  85.5  0.96  0.5      138.   29.3    15.2 
##  4 2021-09-26 4-Seam Fastball          97.4 -0.4   1.01     157.  -12.2    30.8 
##  5 2021-09-26 Split-Finger             90.8 -0.94  0.21     146.  -28.7     6.40
##  6 2021-09-26 Sweeper                  85.2  1.24  0.19     137.   37.8     5.79
##  7 2021-09-26 Sweeper                  84.4  1.41  0.1      136.   43.0     3.05
##  8 2021-09-26 Sweeper                  85.3  0.89  0.8      137.   27.1    24.4 
##  9 2021-09-26 Sweeper                  84.3  1.37  0.38     136.   41.8    11.6 
## 10 2021-09-26 Sweeper                  83    1.37  0.39     134.   41.8    11.9 
## # … with 4,646 more rows, and abbreviated variable names ¹​release_speed_km,
## #   ²​pfx_x_cm, ³​pfx_z_cm

欲しい行だけを残す

いろんな球種のうち、直球に関するデータ（横方向に並んだ「行」）だけを見てみたい。これにはfilterという関数を使う。

ohtani_p_simple %>% 
  filter(pitch_name == "4-Seam Fastball") # 球種（pitch_name）が直球（4-Seam Fastball）のデータだけをフィルタリングする。「=」を二つ並べる（一つじゃダメ！）ことに注意

## # A tibble: 1,617 × 8
##    game_date  pitch_name      release_speed pfx_x pfx_z releas…¹ pfx_x…² pfx_z…³
##    <date>     <chr>                   <dbl> <dbl> <dbl>    <dbl>   <dbl>   <dbl>
##  1 2021-09-26 4-Seam Fastball          99.2 -0.13  1.03     160.   -3.96    31.4
##  2 2021-09-26 4-Seam Fastball          97.4 -0.4   1.01     157.  -12.2     30.8
##  3 2021-09-26 4-Seam Fastball          96.6 -0.26  0.91     155.   -7.92    27.7
##  4 2021-09-26 4-Seam Fastball          98.6 -0.41  1.1      159.  -12.5     33.5
##  5 2021-09-26 4-Seam Fastball          97.5 -0.06  0.9      157.   -1.83    27.4
##  6 2021-09-26 4-Seam Fastball          99   -0.5   1.12     159.  -15.2     34.1
##  7 2021-09-26 4-Seam Fastball          98.9 -0.55  1.15     159.  -16.8     35.1
##  8 2021-09-26 4-Seam Fastball          98.4 -0.18  1.18     158.   -5.49    36.0
##  9 2021-09-26 4-Seam Fastball          98.2 -0.1   0.82     158.   -3.05    25.0
## 10 2021-09-26 4-Seam Fastball          95.5 -0.52  1.1      154.  -15.8     33.5
## # … with 1,607 more rows, and abbreviated variable names ¹​release_speed_km,
## #   ²​pfx_x_cm, ³​pfx_z_cm

並べ替える

取り出した直球だけのデータについて、球速に応じて並べ変えたランキングを作る。

arrangeという関数を使うと、デフォルトでは「小さい順」に並ぶ。descという関数を使うと、「大きい順」になる。

# 下位
ohtani_p_simple %>% 
  filter(pitch_name == "4-Seam Fastball") %>% 
  arrange(release_speed_km) # 球速が「小さい順」に並べる

## # A tibble: 1,617 × 8
##    game_date  pitch_name      release_speed pfx_x pfx_z releas…¹ pfx_x…² pfx_z…³
##    <date>     <chr>                   <dbl> <dbl> <dbl>    <dbl>   <dbl>   <dbl>
##  1 2021-05-19 4-Seam Fastball          84.7 -0.49  1.25     136. -14.9      38.1
##  2 2021-05-19 4-Seam Fastball          85.8 -0.59  1.44     138. -18.0      43.9
##  3 2021-08-25 4-Seam Fastball          87.3 -0.44  1.37     140. -13.4      41.8
##  4 2021-05-19 4-Seam Fastball          87.6 -0.45  1.48     141. -13.7      45.1
##  5 2021-05-28 4-Seam Fastball          88.3  0.01  1.58     142.   0.305    48.2
##  6 2021-05-19 4-Seam Fastball          88.4 -0.12  1.44     142.  -3.66     43.9
##  7 2021-05-19 4-Seam Fastball          88.5 -0.33  1.43     142. -10.1      43.6
##  8 2021-05-19 4-Seam Fastball          89   -0.35  1.57     143. -10.7      47.9
##  9 2021-05-28 4-Seam Fastball          89.4  0.38  1.48     144.  11.6      45.1
## 10 2021-05-19 4-Seam Fastball          89.5 -0.42  1.53     144. -12.8      46.6
## # … with 1,607 more rows, and abbreviated variable names ¹​release_speed_km,
## #   ²​pfx_x_cm, ³​pfx_z_cm

# 上位
ohtani_p_simple %>% 
  filter(pitch_name == "4-Seam Fastball") %>% 
  arrange(desc(release_speed_km)) # 球速が「大きい順」に並べる

## # A tibble: 1,617 × 8
##    game_date  pitch_name      release_speed pfx_x pfx_z releas…¹ pfx_x…² pfx_z…³
##    <date>     <chr>                   <dbl> <dbl> <dbl>    <dbl>   <dbl>   <dbl>
##  1 2022-09-10 4-Seam Fastball          101. -0.21  1.13     163.   -6.40    34.4
##  2 2022-07-22 4-Seam Fastball          101. -0.12  1.1      163.   -3.66    33.5
##  3 2021-04-04 4-Seam Fastball          101. -0.44  1.44     163.  -13.4     43.9
##  4 2022-06-29 4-Seam Fastball          101  -0.27  1.16     163.   -8.23    35.4
##  5 2022-06-09 4-Seam Fastball          101  -0.26  1.23     163.   -7.92    37.5
##  6 2021-04-04 4-Seam Fastball          101. -0.41  1.47     162.  -12.5     44.8
##  7 2022-07-06 4-Seam Fastball          101. -0.37  1.66     162.  -11.3     50.6
##  8 2022-05-18 4-Seam Fastball          101. -0.41  0.99     162.  -12.5     30.2
##  9 2022-05-18 4-Seam Fastball          101.  0     0.87     162.    0       26.5
## 10 2021-04-04 4-Seam Fastball          101. -0.23  1.37     162.   -7.01    41.8
## # … with 1,607 more rows, and abbreviated variable names ¹​release_speed_km,
## #   ²​pfx_x_cm, ³​pfx_z_cm
…
球種ごとの球速

上記の1を確かめるために、登板日ごと、また球種ごとに平均球速を計算した上で、折れ線グラフにする。

group_byという関数を使って、登板日と球種ごとのグループを作ることを宣言してから、平均球速を出す。

ohtani_p_simple %>% 
  group_by(game_date,
           pitch_name) %>% # 登板日と球種ごとに「グループ」を作って
  summarize(average_speed=mean(release_speed_km)) # 各グループで球速(release_speed_km)の平均値(mean)を計算して、average_speedと名付けた列にその値を入力する

## `summarise()` has grouped output by 'game_date'. You
## can override using the `.groups` argument.

## # A tibble: 257 × 3
## # Groups:   game_date [51]
##    game_date  pitch_name      average_speed
##    <date>     <chr>                   <dbl>
##  1 2021-04-04 4-Seam Fastball          158.
##  2 2021-04-04 Curveball                122.
##  3 2021-04-04 Cutter                   145.
##  4 2021-04-04 Split-Finger             145.
##  5 2021-04-04 Sweeper                  131.
##  6 2021-04-20 4-Seam Fastball          154.
##  7 2021-04-20 Curveball                120.
##  8 2021-04-20 Cutter                   140.
##  9 2021-04-20 Split-Finger             144.
## 10 2021-04-20 Sweeper                  130.
## # … with 247 more rows
…
球種ごとの球数

上記2を確かめるために、1と同様に登板日と球種ごとにグループを作った上で、それぞれの球数を
カウントする。数えるのにはn()という関数を使う。そのうえで棒グラフを描く。

ohtani_p_simple %>% 
  group_by(game_date,
           pitch_name) %>% 
  summarize(number=n()) # 各グループでの数を数え、numberという列に入力する

## `summarise()` has grouped output by 'game_date'. You
## can override using the `.groups` argument.

## # A tibble: 257 × 3
## # Groups:   game_date [51]
##    game_date  pitch_name      number
##    <date>     <chr>            <int>
##  1 2021-04-04 4-Seam Fastball     52
##  2 2021-04-04 Curveball            2
##  3 2021-04-04 Cutter               1
##  4 2021-04-04 Split-Finger        16
##  5 2021-04-04 Sweeper             21
##  6 2021-04-20 4-Seam Fastball     31
##  7 2021-04-20 Curveball           12
##  8 2021-04-20 Cutter              19
##  9 2021-04-20 Split-Finger         9
## 10 2021-04-20 Sweeper              9
## # … with 247 more rows
…
